Question3/Pipeline/dump.vcd
$date
	Wed Mar 26 01:10:35 2025
$end
$version
	Icarus Verilog
$end
$timescale
	1s
$end
$scope module tb_riscv_pipelined $end
$var reg 1 ! clk $end
$var reg 1 " rst $end
$scope module pipeDUT $end
$var wire 1 # RegWriteW $end
$var wire 1 ! clk $end
$var wire 1 " rst $end
$var wire 32 $ readDataW [31:0] $end
$var wire 1 % memtoRegW $end
$var wire 1 & memtoRegM $end
$var wire 1 ' memtoRegE $end
$var wire 32 ( immediateE [31:0] $end
$var wire 1 ) ZeroM $end
$var wire 5 * Write_reg_4bit [4:0] $end
$var wire 32 + WriteDataW [31:0] $end
$var wire 1 , RegWriteM $end
$var wire 1 - RegWriteE $end
$var wire 32 . ReadData2M [31:0] $end
$var wire 32 / ReadData2E [31:0] $end
$var wire 32 0 ReadData1E [31:0] $end
$var wire 32 1 PCTarget_final [31:0] $end
$var wire 32 2 PCTargetM [31:0] $end
$var wire 1 3 PCSrc_final $end
$var wire 32 4 PCE [31:0] $end
$var wire 32 5 PCD [31:0] $end
$var wire 1 6 MemWriteM $end
$var wire 1 7 MemWriteE $end
$var wire 1 8 MemReadM $end
$var wire 1 9 MemReadE $end
$var wire 32 : InstrW [31:0] $end
$var wire 32 ; InstrM [31:0] $end
$var wire 32 < InstrE [31:0] $end
$var wire 32 = InstrD [31:0] $end
$var wire 1 > BranchM $end
$var wire 1 ? BranchE $end
$var wire 1 @ ALUSrcE $end
$var wire 32 A ALUOutW [31:0] $end
$var wire 32 B ALUOutM [31:0] $end
$var wire 2 C ALUOpE [1:0] $end
$scope module decode_cycle_inst $end
$var wire 2 D ALUOpE [1:0] $end
$var wire 1 @ ALUSrcE $end
$var wire 1 ? BranchE $end
$var wire 32 E InstrE [31:0] $end
$var wire 1 9 MemReadE $end
$var wire 1 7 MemWriteE $end
$var wire 32 F PCE [31:0] $end
$var wire 32 G ReadData1E [31:0] $end
$var wire 32 H ReadData2E [31:0] $end
$var wire 1 - RegWriteE $end
$var wire 1 # RegWriteW $end
$var wire 1 ! clk $end
$var wire 32 I immediateE [31:0] $end
$var wire 1 ' memtoRegE $end
$var wire 1 " rst $end
$var wire 1 J memtoRegD $end
$var wire 32 K immediateD [31:0] $end
$var wire 5 L Write_reg_4bit [4:0] $end
$var wire 32 M WriteDataW [31:0] $end
$var wire 1 N RegWriteD $end
$var wire 32 O ReadData2D [31:0] $end
$var wire 32 P ReadData1D [31:0] $end
$var wire 32 Q PCD [31:0] $end
$var wire 1 R MemWriteD $end
$var wire 1 S MemReadD $end
$var wire 32 T InstrD [31:0] $end
$var wire 1 U BranchD $end
$var wire 1 V ALUSrcD $end
$var wire 2 W ALUOpD [1:0] $end
$var reg 2 X ALUOpD_r [1:0] $end
$var reg 1 @ ALUSrcD_r $end
$var reg 1 Y BranchD_r $end
$var reg 32 Z InstrD_r [31:0] $end
$var reg 1 [ MemReadD_r $end
$var reg 1 \ MemWriteD_r $end
$var reg 32 ] PCD_r [31:0] $end
$var reg 32 ^ ReadData1D_r [31:0] $end
$var reg 32 _ ReadData2D_r [31:0] $end
$var reg 1 ` RegWriteD_r $end
$var reg 32 a immediateD_r [31:0] $end
$var reg 1 b memtoRegD_r $end
$scope module m_Control $end
$var wire 1 V ALUSrc $end
$var wire 7 c opcode [6:0] $end
$var wire 1 N regWrite $end
$var wire 1 J memtoReg $end
$var wire 1 R memWrite $end
$var wire 1 S memRead $end
$var wire 1 U branch $end
$var wire 2 d ALUOp [1:0] $end
$upscope $end
$scope module m_ImmGen $end
$var wire 7 e opcode [6:0] $end
$var wire 32 f inst [31:0] $end
$var parameter 32 g Width $end
$var reg 32 h imm [31:0] $end
$upscope $end
$scope module m_Register $end
$var wire 1 ! clk $end
$var wire 5 i readReg1 [4:0] $end
$var wire 5 j readReg2 [4:0] $end
$var wire 1 # regWrite $end
$var wire 1 " rst $end
$var wire 5 k writeReg [4:0] $end
$var wire 32 l writeData [31:0] $end
$var wire 32 m readData2 [31:0] $end
$var wire 32 n readData1 [31:0] $end
$upscope $end
$upscope $end
$scope module execute_cycle_inst $end
$var wire 2 o ALUOpE [1:0] $end
$var wire 32 p ALUOutM [31:0] $end
$var wire 1 @ ALUSrcE $end
$var wire 1 ? BranchE $end
$var wire 1 > BranchM $end
$var wire 32 q InstrE [31:0] $end
$var wire 32 r InstrM [31:0] $end
$var wire 1 9 MemReadE $end
$var wire 1 8 MemReadM $end
$var wire 1 7 MemWriteE $end
$var wire 1 6 MemWriteM $end
$var wire 32 s PCE [31:0] $end
$var wire 32 t PCTargetM [31:0] $end
$var wire 32 u ReadData1E [31:0] $end
$var wire 32 v ReadData2E [31:0] $end
$var wire 32 w ReadData2M [31:0] $end
$var wire 1 - RegWriteE $end
$var wire 1 , RegWriteM $end
$var wire 1 ! clk $end
$var wire 32 x immediateE [31:0] $end
$var wire 1 ' memtoRegE $end
$var wire 1 & memtoRegM $end
$var wire 1 " rst $end
$var wire 1 y zeroE $end
$var wire 32 z mux_input_to_ALU_BE [31:0] $end
$var wire 1 ) ZeroM $end
$var wire 32 { PCTargetE [31:0] $end
$var wire 32 | ALUOutE [31:0] $end
$var wire 4 } ALUCtl [3:0] $end
$var reg 32 ~ ALUOutE_r [31:0] $end
$var reg 1 > BranchE_r $end
$var reg 32 !" InstrE_r [31:0] $end
$var reg 1 "" MemReadE_r $end
$var reg 1 #" MemWriteE_r $end
$var reg 32 $" PCTargetE_r [31:0] $end
$var reg 32 %" ReadData2E_r [31:0] $end
$var reg 1 &" RegWriteE_r $end
$var reg 1 '" memtoRegE_r $end
$var reg 1 ) zeroE_r $end
$scope module m_ALU $end
$var wire 32 (" A [31:0] $end
$var wire 32 )" ori [31:0] $end
$var wire 1 y zero $end
$var wire 32 *" sum [31:0] $end
$var wire 32 +" slti [31:0] $end
$var wire 32 ," diff [31:0] $end
$var wire 32 -" B [31:0] $end
$var wire 4 ." ALUCtl [3:0] $end
$var reg 32 /" ALUOut [31:0] $end
$upscope $end
$scope module m_ALUCtrl $end
$var wire 2 0" ALUOp [1:0] $end
$var wire 3 1" funct3 [2:0] $end
$var wire 1 2" funct7 $end
$var reg 4 3" ALUCtl [3:0] $end
$upscope $end
$scope module m_Adder_2 $end
$var wire 32 4" a [31:0] $end
$var wire 32 5" b [31:0] $end
$var wire 32 6" sum [31:0] $end
$upscope $end
$scope module m_Mux_ALU $end
$var wire 32 7" s0 [31:0] $end
$var wire 32 8" s1 [31:0] $end
$var wire 1 @ sel $end
$var wire 32 9" out [31:0] $end
$var parameter 32 :" size $end
$upscope $end
$upscope $end
$scope module fetch_cycle_inst $end
$var wire 32 ;" PCD [31:0] $end
$var wire 1 ! clk $end
$var wire 1 " rst $end
$var wire 32 <" output_from_PC [31:0] $end
$var wire 32 =" instruction [31:0] $end
$var wire 32 >" input_to_PC [31:0] $end
$var wire 32 ?" PCTarget_final [31:0] $end
$var wire 1 3 PCSrc_final $end
$var wire 32 @" PCPlus4F [31:0] $end
$var wire 32 A" InstrD [31:0] $end
$var reg 32 B" instruction_reg [31:0] $end
$var reg 32 C" output_from_PC_reg [31:0] $end
$scope module m_Adder_1 $end
$var wire 32 D" b [31:0] $end
$var wire 32 E" sum [31:0] $end
$var wire 32 F" a [31:0] $end
$upscope $end
$scope module m_InstMem $end
$var wire 32 G" readAddr [31:0] $end
$var wire 32 H" inst [31:0] $end
$upscope $end
$scope module m_Mux_PC $end
$var wire 32 I" s0 [31:0] $end
$var wire 1 3 sel $end
$var wire 32 J" s1 [31:0] $end
$var wire 32 K" out [31:0] $end
$var parameter 32 L" size $end
$upscope $end
$scope module m_PC $end
$var wire 1 ! clk $end
$var wire 32 M" pc_i [31:0] $end
$var wire 1 " rst $end
$var reg 32 N" pc_o [31:0] $end
$upscope $end
$upscope $end
$scope module memory_cycle_inst $end
$var wire 32 O" ALUOutM [31:0] $end
$var wire 32 P" ALUOutW [31:0] $end
$var wire 1 > BranchM $end
$var wire 32 Q" InstrM [31:0] $end
$var wire 32 R" InstrW [31:0] $end
$var wire 1 8 MemReadM $end
$var wire 1 6 MemWriteM $end
$var wire 1 3 PCSrc_final $end
$var wire 32 S" PCTargetM [31:0] $end
$var wire 32 T" PCTarget_final [31:0] $end
$var wire 32 U" ReadData2M [31:0] $end
$var wire 1 , RegWriteM $end
$var wire 1 # RegWriteW $end
$var wire 1 ) ZeroM $end
$var wire 1 ! clk $end
$var wire 1 & memtoRegM $end
$var wire 1 % memtoRegW $end
$var wire 32 V" readDataW [31:0] $end
$var wire 1 " rst $end
$var wire 32 W" readDataM [31:0] $end
$var reg 32 X" ALUOutM_r [31:0] $end
$var reg 32 Y" InstrM_r [31:0] $end
$var reg 1 Z" PCSrcM_r $end
$var reg 32 [" PCTargetM_r [31:0] $end
$var reg 1 \" RegWriteM_r $end
$var reg 1 % memtoRegM_r $end
$var reg 32 ]" readDataM_r [31:0] $end
$scope module m_DataMemory $end
$var wire 32 ^" address [31:0] $end
$var wire 1 ! clk $end
$var wire 1 8 memRead $end
$var wire 1 6 memWrite $end
$var wire 1 " rst $end
$var wire 32 _" writeData [31:0] $end
$var reg 32 `" readData [31:0] $end
$upscope $end
$upscope $end
$scope module writeback_inst $end
$var wire 32 a" ALUOutW [31:0] $end
$var wire 32 b" InstrW [31:0] $end
$var wire 1 # RegWriteW $end
$var wire 1 # RegWrite_final_to_E $end
$var wire 1 % memtoRegW $end
$var wire 32 c" readDataW [31:0] $end
$var wire 5 d" Write_reg_4bit [4:0] $end
$var wire 32 e" Write_data_Register_final [31:0] $end
$scope module m_Mux_WB $end
$var wire 32 f" s0 [31:0] $end
$var wire 32 g" s1 [31:0] $end
$var wire 1 % sel $end
$var wire 32 h" out [31:0] $end
$var parameter 32 i" size $end
$upscope $end
$upscope $end
$upscope $end
$upscope $end
$enddefinitions $end
$comment Show the parameter values. $end
$dumpall
b100000 i"
b100000 L"
b100000 :"
b100000 g
$end
#0
$dumpvars
b0 h"
b0 g"
b0 f"
b0 e"
b0 d"
b0 c"
b0 b"
b0 a"
b0 `"
b0 _"
b0 ^"
b0 ]"
0\"
b0 ["
0Z"
b0 Y"
b0 X"
b0 W"
b0 V"
b0 U"
b0 T"
b0 S"
b0 R"
b0 Q"
b0 P"
b0 O"
bx N"
bx M"
bx K"
b0 J"
bx I"
bx H"
bx G"
bx F"
bx E"
b100 D"
b0 C"
b0 B"
b0 A"
bx @"
b0 ?"
bx >"
bx ="
bx <"
b0 ;"
b0 9"
b0 8"
b0 7"
b0 6"
b0 5"
b0 4"
b0 3"
02"
b0 1"
b0 0"
b0 /"
b0 ."
b0 -"
b0 ,"
b0 +"
b0 *"
b0 )"
b0 ("
0'"
0&"
b0 %"
b0 $"
0#"
0""
b0 !"
b0 ~
b0 }
b0 |
b0 {
b0 z
1y
b0 x
b0 w
b0 v
b0 u
b0 t
b0 s
b0 r
b0 q
b0 p
b0 o
b0 n
b0 m
b0 l
b0 k
b0 j
b0 i
b0 h
b0 f
b0 e
b11 d
b0 c
0b
b0 a
0`
b0 _
b0 ^
b0 ]
0\
0[
b0 Z
0Y
b0 X
b11 W
0V
0U
b0 T
0S
0R
b0 Q
b0 P
b0 O
0N
b0 M
b0 L
b0 K
0J
b0 I
b0 H
b0 G
b0 F
b0 E
b0 D
b0 C
b0 B
b0 A
0@
0?
0>
b0 =
b0 <
b0 ;
b0 :
09
08
07
06
b0 5
b0 4
03
b0 2
b0 1
b0 0
b0 /
b0 .
0-
0,
b0 +
b0 *
0)
b0 (
0'
0&
0%
b0 $
x#
0"
0!
$end
#5
b1010001100000000010000010011 ="
b1010001100000000010000010011 H"
b100 >"
b100 K"
b100 M"
b100 @"
b100 E"
b100 I"
b0 <"
b0 F"
b0 G"
b0 N"
1!
#10
0!
1"
#15
1N
b0 W
b0 d
1V
b10100011 K
b10100011 h
b11111111110000010000000100010011 ="
b11111111110000010000000100010011 H"
b1000 >"
b1000 K"
b1000 M"
b10011 e
b10011 c
b11 j
b1000 @"
b1000 E"
b1000 I"
b100 <"
b100 F"
b100 G"
b100 N"
b1010001100000000010000010011 =
b1010001100000000010000010011 T
b1010001100000000010000010011 f
b1010001100000000010000010011 A"
b1010001100000000010000010011 B"
b11 C
b11 D
b11 o
b11 0"
b11 X
1)
1!
#20
0!
#25
b1 +"
0y
b10100011 |
b10100011 /"
b10100011 )"
b10000000 P
b10000000 n
b100000010010000000100011 ="
b100000010010000000100011 H"
b1100 >"
b1100 K"
b1100 M"
b11111111111111111111111101011101 ,"
b10100011 *"
b10100011 z
b10100011 -"
b10100011 9"
b11100 j
b10 i
b11111111111111111111111111111100 K
b11111111111111111111111111111100 h
b1100 @"
b1100 E"
b1100 I"
b1000 <"
b1000 F"
b1000 G"
b1000 N"
b1010001100000000010000010011 <
b1010001100000000010000010011 E
b1010001100000000010000010011 Z
b1010001100000000010000010011 q
b10100011 {
b10100011 6"
b10100011 (
b10100011 I
b10100011 a
b10100011 x
b10100011 4"
b10100011 8"
b0 C
b0 D
b0 o
b0 0"
b0 X
1-
1`
1@
b100 5
b100 Q
b100 ;"
b100 C"
b11111111110000010000000100010011 =
b11111111110000010000000100010011 T
b11111111110000010000000100010011 f
b11111111110000010000000100010011 A"
b11111111110000010000000100010011 B"
1!
#30
0!
#35
0N
b11 W
b11 d
b0 +"
b10000110011 ="
b10000110011 H"
b10000 >"
b10000 K"
b10000 M"
b100011 e
1R
b100011 c
b1000 j
b0 K
b0 h
12"
b11111111111111111111111111111100 )"
b1111100 |
b1111100 /"
b11111111111111111111111111111100 z
b11111111111111111111111111111100 -"
b11111111111111111111111111111100 9"
b10000 @"
b10000 E"
b10000 I"
b1100 <"
b1100 F"
b1100 G"
b1100 N"
b1000 5
b1000 Q
b1000 ;"
b1000 C"
b100000010010000000100011 =
b100000010010000000100011 T
b100000010010000000100011 f
b100000010010000000100011 A"
b100000010010000000100011 B"
b11111111110000010000000100010011 <
b11111111110000010000000100010011 E
b11111111110000010000000100010011 Z
b11111111110000010000000100010011 q
b100 4
b100 F
b100 ]
b100 s
b100 5"
b1111100 *"
b10000100 ,"
b10000000 0
b10000000 G
b10000000 ^
b10000000 u
b10000000 ("
b0 {
b0 6"
b11111111111111111111111111111100 (
b11111111111111111111111111111100 I
b11111111111111111111111111111100 a
b11111111111111111111111111111100 x
b11111111111111111111111111111100 4"
b11111111111111111111111111111100 8"
b10100011 1
b10100011 ?"
b10100011 J"
b10100011 T"
b10100011 2
b10100011 t
b10100011 $"
b10100011 S"
b10100011 B
b10100011 p
b10100011 O"
b10100011 ^"
b10100011 ~
0)
b1010001100000000010000010011 ;
b1010001100000000010000010011 r
b1010001100000000010000010011 Q"
b1010001100000000010000010011 !"
1,
1&"
1!
#40
0!
#45
1N
b10 W
b10 d
b10000000 |
b10000000 /"
b10000000 )"
0V
b0 P
b0 n
b1010010011 ="
b1010010011 H"
b10100 >"
b10100 K"
b10100 M"
b1000 *
b1000 L
b1000 k
b1000 d"
b10100011 +
b10100011 M
b10100011 l
b10100011 e"
b10100011 h"
02"
b10 1"
b10000000 ,"
b10000000 *"
b0 z
b0 -"
b0 9"
b110011 e
0R
b110011 c
b0 j
b0 i
b0 K
b0 h
b10100 @"
b10100 E"
b10100 I"
b10000 <"
b10000 F"
b10000 G"
b10000 N"
b1010001100000000010000010011 :
b1010001100000000010000010011 R"
b1010001100000000010000010011 Y"
b1010001100000000010000010011 b"
b10100011 A
b10100011 P"
b10100011 X"
b10100011 a"
b10100011 f"
1\"
b0 1
b0 ?"
b0 J"
b0 T"
b0 2
b0 t
b0 $"
b0 S"
b1111100 B
b1111100 p
b1111100 O"
b1111100 ^"
b1111100 ~
b11111111110000010000000100010011 ;
b11111111110000010000000100010011 r
b11111111110000010000000100010011 Q"
b11111111110000010000000100010011 !"
b100000010010000000100011 <
b100000010010000000100011 E
b100000010010000000100011 Z
b100000010010000000100011 q
b1000 4
b1000 F
b1000 ]
b1000 s
b1000 5"
b1000 {
b1000 6"
b0 (
b0 I
b0 a
b0 x
b0 4"
b0 8"
b11 C
b11 D
b11 o
b11 0"
b11 X
17
1\
0-
0`
b1100 5
b1100 Q
b1100 ;"
b1100 C"
b10000110011 =
b10000110011 T
b10000110011 f
b10000110011 A"
b10000110011 B"
1!
#50
0!
#55
1V
b0 W
b0 d
b11100101010001100010011 ="
b11100101010001100010011 H"
b11000 >"
b11000 K"
b11000 M"
b10011 e
b10011 c
b0 1"
b0 )"
1y
b0 |
b0 /"
b10 *
b10 L
b10 k
b10 d"
b1111100 +
b1111100 M
b1111100 l
b1111100 e"
b1111100 h"
b11000 @"
b11000 E"
b11000 I"
b10100 <"
b10100 F"
b10100 G"
b10100 N"
b10000 5
b10000 Q
b10000 ;"
b10000 C"
b1010010011 =
b1010010011 T
b1010010011 f
b1010010011 A"
b1010010011 B"
b10000110011 <
b10000110011 E
b10000110011 Z
b10000110011 q
b1100 {
b1100 6"
b1100 4
b1100 F
b1100 ]
b1100 s
b1100 5"
b0 *"
b0 ,"
b0 0
b0 G
b0 ^
b0 u
b0 ("
b10 C
b10 D
b10 o
b10 0"
b10 X
07
0\
1-
1`
0@
b1000 1
b1000 ?"
b1000 J"
b1000 T"
b1000 2
b1000 t
b1000 $"
b1000 S"
b10000000 B
b10000000 p
b10000000 O"
b10000000 ^"
b10000000 ~
b100000010010000000100011 ;
b100000010010000000100011 r
b100000010010000000100011 Q"
b100000010010000000100011 !"
16
1#"
0,
0&"
b11111111110000010000000100010011 :
b11111111110000010000000100010011 R"
b11111111110000010000000100010011 Y"
b11111111110000010000000100010011 b"
b1111100 A
b1111100 P"
b1111100 X"
b1111100 a"
b1111100 f"
1!
#60
0!
#65
b110000011001100011 ="
b110000011001100011 H"
b11100 >"
b11100 K"
b11100 M"
b0 *
b0 L
b0 k
b0 d"
b10000000 +
b10000000 M
b10000000 l
b10000000 e"
b10000000 h"
b111 j
b101 i
b111 K
b111 h
b11100 @"
b11100 E"
b11100 I"
b11000 <"
b11000 F"
b11000 G"
b11000 N"
b100000010010000000100011 :
b100000010010000000100011 R"
b100000010010000000100011 Y"
b100000010010000000100011 b"
b10000000 A
b10000000 P"
b10000000 X"
b10000000 a"
b10000000 f"
0\"
b1100 1
b1100 ?"
b1100 J"
b1100 T"
b1100 2
b1100 t
b1100 $"
b1100 S"
b0 B
b0 p
b0 O"
b0 ^"
b0 ~
1)
b10000110011 ;
b10000110011 r
b10000110011 Q"
b10000110011 !"
06
0#"
1,
1&"
b1010010011 <
b1010010011 E
b1010010011 Z
b1010010011 q
b10000 {
b10000 6"
b10000 4
b10000 F
b10000 ]
b10000 s
b10000 5"
b0 C
b0 D
b0 o
b0 0"
b0 X
1@
b10100 5
b10100 Q
b10100 ;"
b10100 C"
b11100101010001100010011 =
b11100101010001100010011 T
b11100101010001100010011 f
b11100101010001100010011 A"
b11100101010001100010011 B"
1!
#70
0!
#75
0N
0V
b1 W
b1 d
b10 }
b10 ."
b10 3"
b1 +"
0y
b1 |
b1 /"
b111 )"
b100101000001010010011 ="
b100101000001010010011 H"
b100000 >"
b100000 K"
b100000 M"
b1100011 e
1U
b1100011 c
b0 j
b110 i
b1100 K
b1100 h
b10 1"
b11111111111111111111111111111001 ,"
b111 *"
b111 z
b111 -"
b111 9"
b1000 *
b1000 L
b1000 k
b1000 d"
b0 +
b0 M
b0 l
b0 e"
b0 h"
b100000 @"
b100000 E"
b100000 I"
b11100 <"
b11100 F"
b11100 G"
b11100 N"
b11000 5
b11000 Q
b11000 ;"
b11000 C"
b110000011001100011 =
b110000011001100011 T
b110000011001100011 f
b110000011001100011 A"
b110000011001100011 B"
b11100101010001100010011 <
b11100101010001100010011 E
b11100101010001100010011 Z
b11100101010001100010011 q
b10100 4
b10100 F
b10100 ]
b10100 s
b10100 5"
b11011 {
b11011 6"
b111 (
b111 I
b111 a
b111 x
b111 4"
b111 8"
b10000 1
b10000 ?"
b10000 J"
b10000 T"
b10000 2
b10000 t
b10000 $"
b10000 S"
b1010010011 ;
b1010010011 r
b1010010011 Q"
b1010010011 !"
b10000110011 :
b10000110011 R"
b10000110011 Y"
b10000110011 b"
b0 A
b0 P"
b0 X"
b0 a"
b0 f"
1\"
1!
#80
0!
#85
1N
1V
b0 +"
1y
b0 |
b0 /"
b0 )"
b0 W
b0 d
b11111110000000000000101011100011 ="
b11111110000000000000101011100011 H"
b100100 >"
b100100 K"
b100100 M"
b101 *
b101 L
b101 k
b101 d"
b0 1"
b1 }
b1 ."
b1 3"
b0 ,"
b0 *"
b0 z
b0 -"
b0 9"
b10011 e
0U
b10011 c
b1 j
b101 i
b1 K
b1 h
b100100 @"
b100100 E"
b100100 I"
b100000 <"
b100000 F"
b100000 G"
b100000 N"
b1010010011 :
b1010010011 R"
b1010010011 Y"
b1010010011 b"
b11011 1
b11011 ?"
b11011 J"
b11011 T"
b11011 2
b11011 t
b11011 $"
b11011 S"
b1 B
b1 p
b1 O"
b1 ^"
b1 ~
0)
b11100101010001100010011 ;
b11100101010001100010011 r
b11100101010001100010011 Q"
b11100101010001100010011 !"
b110000011001100011 <
b110000011001100011 E
b110000011001100011 Z
b110000011001100011 q
b11000 4
b11000 F
b11000 ]
b11000 s
b11000 5"
b100100 {
b100100 6"
b1100 (
b1100 I
b1100 a
b1100 x
b1100 4"
b1100 8"
b1 C
b1 D
b1 o
b1 0"
b1 X
0-
0`
0@
1?
1Y
b11100 5
b11100 Q
b11100 ;"
b11100 C"
b100101000001010010011 =
b100101000001010010011 T
b100101000001010010011 f
b100101000001010010011 A"
b100101000001010010011 B"
1!
#90
0!
#95
0N
0V
b1 W
b1 d
b1 +"
0y
b1 |
b1 /"
b1 )"
b101000110110001100010011 ="
b101000110110001100010011 H"
b1100011 e
1U
b1100011 c
b0 j
b0 i
b11111111111111111111111111110100 K
b11111111111111111111111111110100 h
b0 }
b0 ."
b0 3"
b11111111111111111111111111111111 ,"
b1 *"
b1 z
b1 -"
b1 9"
13
b110 *
b110 L
b110 k
b110 d"
b1 +
b1 M
b1 l
b1 e"
b1 h"
b101000 @"
b101000 E"
b101000 I"
b100100 <"
b100100 F"
b100100 G"
b100100 N"
b100000 5
b100000 Q
b100000 ;"
b100000 C"
b11111110000000000000101011100011 =
b11111110000000000000101011100011 T
b11111110000000000000101011100011 f
b11111110000000000000101011100011 A"
b11111110000000000000101011100011 B"
b100101000001010010011 <
b100101000001010010011 E
b100101000001010010011 Z
b100101000001010010011 q
b11100 4
b11100 F
b11100 ]
b11100 s
b11100 5"
b11101 {
b11101 6"
b1 (
b1 I
b1 a
b1 x
b1 4"
b1 8"
b0 C
b0 D
b0 o
b0 0"
b0 X
1-
1`
1@
0?
0Y
b100100 1
b100100 ?"
b100100 J"
b100100 T"
b100100 2
b100100 t
b100100 $"
b100100 S"
b0 B
b0 p
b0 O"
b0 ^"
b0 ~
1)
b110000011001100011 ;
b110000011001100011 r
b110000011001100011 Q"
b110000011001100011 !"
0,
0&"
1>
b11100101010001100010011 :
b11100101010001100010011 R"
b11100101010001100010011 Y"
b11100101010001100010011 b"
b1 A
b1 P"
b1 X"
b1 a"
b1 f"
1!
#100
0!
#105
1N
1V
b0 +"
1y
b0 |
b0 /"
b0 )"
b0 W
b0 d
b1100 *
b1100 L
b1100 k
b1100 d"
b0 +
b0 M
b0 l
b0 e"
b0 h"
b101000 >"
b101000 K"
b101000 M"
03
12"
b1 }
b1 ."
b1 3"
b0 ,"
b0 *"
b0 z
b0 -"
b0 9"
b10011 e
0U
b10011 c
b1010 j
b110 i
b1010 K
b1010 h
b110000011001100011 :
b110000011001100011 R"
b110000011001100011 Y"
b110000011001100011 b"
b0 A
b0 P"
b0 X"
b0 a"
b0 f"
0\"
b11101 1
b11101 ?"
b11101 J"
b11101 T"
b11101 2
b11101 t
b11101 $"
b11101 S"
b1 B
b1 p
b1 O"
b1 ^"
b1 ~
0)
b100101000001010010011 ;
b100101000001010010011 r
b100101000001010010011 Q"
b100101000001010010011 !"
1,
1&"
0>
b11111110000000000000101011100011 <
b11111110000000000000101011100011 E
b11111110000000000000101011100011 Z
b11111110000000000000101011100011 q
b100000 4
b100000 F
b100000 ]
b100000 s
b100000 5"
b10100 {
b10100 6"
b11111111111111111111111111110100 (
b11111111111111111111111111110100 I
b11111111111111111111111111110100 a
b11111111111111111111111111110100 x
b11111111111111111111111111110100 4"
b11111111111111111111111111110100 8"
b1 C
b1 D
b1 o
b1 0"
b1 X
0-
0`
0@
1?
1Y
b100100 5
b100100 Q
b100100 ;"
b100100 C"
b101000110110001100010011 =
b101000110110001100010011 T
b101000110110001100010011 f
b101000110110001100010011 A"
b101000110110001100010011 B"
1!
#110
0!
#115
b1 +"
0y
b1010 |
b1010 /"
b1010 )"
b10010010000000011 ="
b10010010000000011 H"
b10100 >"
b10100 K"
b10100 M"
02"
b110 1"
b11 }
b11 ."
b11 3"
b11111111111111111111111111110110 ,"
b1010 *"
b1010 z
b1010 -"
b1010 9"
13
b101 *
b101 L
b101 k
b101 d"
b1 +
b1 M
b1 l
b1 e"
b1 h"
b101100 @"
b101100 E"
b101100 I"
b101000 <"
b101000 F"
b101000 G"
b101000 N"
b101000110110001100010011 <
b101000110110001100010011 E
b101000110110001100010011 Z
b101000110110001100010011 q
b100100 4
b100100 F
b100100 ]
b100100 s
b100100 5"
b101110 {
b101110 6"
b1010 (
b1010 I
b1010 a
b1010 x
b1010 4"
b1010 8"
b0 C
b0 D
b0 o
b0 0"
b0 X
1-
1`
1@
0?
0Y
b10100 1
b10100 ?"
b10100 J"
b10100 T"
b10100 2
b10100 t
b10100 $"
b10100 S"
b0 B
b0 p
b0 O"
b0 ^"
b0 ~
1)
b11111110000000000000101011100011 ;
b11111110000000000000101011100011 r
b11111110000000000000101011100011 Q"
b11111110000000000000101011100011 !"
0,
0&"
1>
b100101000001010010011 :
b100101000001010010011 R"
b100101000001010010011 Y"
b100101000001010010011 b"
b1 A
b1 P"
b1 X"
b1 a"
b1 f"
1\"
1!
#120
0!
#125
b11 W
b11 d
b10000000 P
b10000000 n
b11100101010001100010011 ="
b11100101010001100010011 H"
b10101 *
b10101 L
b10101 k
b10101 d"
b0 +
b0 M
b0 l
b0 e"
b0 h"
b11000 >"
b11000 K"
b11000 M"
03
b11 e
1S
1J
b11 c
b0 j
b10 i
b0 K
b0 h
b11000 @"
b11000 E"
b11000 I"
b10100 <"
b10100 F"
b10100 G"
b10100 N"
b11111110000000000000101011100011 :
b11111110000000000000101011100011 R"
b11111110000000000000101011100011 Y"
b11111110000000000000101011100011 b"
b0 A
b0 P"
b0 X"
b0 a"
b0 f"
0\"
b101110 1
b101110 ?"
b101110 J"
b101110 T"
b101110 2
b101110 t
b101110 $"
b101110 S"
b1010 B
b1010 p
b1010 O"
b1010 ^"
b1010 ~
0)
b101000110110001100010011 ;
b101000110110001100010011 r
b101000110110001100010011 Q"
b101000110110001100010011 !"
1,
1&"
0>
b101000 5
b101000 Q
b101000 ;"
b101000 C"
b10010010000000011 =
b10010010000000011 T
b10010010000000011 f
b10010010000000011 A"
b10010010000000011 B"
1!
#130
0!
#135
b0 W
b0 d
1N
b0 P
b0 n
b110000011001100011 ="
b110000011001100011 H"
b11100 >"
b11100 K"
b11100 M"
b10011 e
0S
0J
b10011 c
b111 j
b101 i
b111 K
b111 h
b10 1"
b10000000 )"
b10000000 |
b10000000 /"
b0 +"
b0 z
b0 -"
b0 9"
b0 }
b0 ."
b0 3"
b110 *
b110 L
b110 k
b110 d"
b1010 +
b1010 M
b1010 l
b1010 e"
b1010 h"
b11100 @"
b11100 E"
b11100 I"
b11000 <"
b11000 F"
b11000 G"
b11000 N"
b10100 5
b10100 Q
b10100 ;"
b10100 C"
b11100101010001100010011 =
b11100101010001100010011 T
b11100101010001100010011 f
b11100101010001100010011 A"
b11100101010001100010011 B"
b10010010000000011 <
b10010010000000011 E
b10010010000000011 Z
b10010010000000011 q
b101000 4
b101000 F
b101000 ]
b101000 s
b101000 5"
b10000000 *"
b10000000 ,"
b10000000 0
b10000000 G
b10000000 ^
b10000000 u
b10000000 ("
b101000 {
b101000 6"
b0 (
b0 I
b0 a
b0 x
b0 4"
b0 8"
b11 C
b11 D
b11 o
b11 0"
b11 X
1'
1b
19
1[
b101000110110001100010011 :
b101000110110001100010011 R"
b101000110110001100010011 Y"
b101000110110001100010011 b"
b1010 A
b1010 P"
b1010 X"
b1010 a"
b1010 f"
1\"
1!
#140
0!
#145
0N
0V
b1 +"
b1 W
b1 d
b100101000001010010011 ="
b100101000001010010011 H"
b100000 >"
b100000 K"
b100000 M"
bx W"
bx `"
b111 )"
0y
b1 |
b1 /"
b111 z
b111 -"
b111 9"
b10 }
b10 ."
b10 3"
b1100011 e
1U
b1100011 c
b0 j
b110 i
b1100 K
b1100 h
b100000 @"
b100000 E"
b100000 I"
b11100 <"
b11100 F"
b11100 G"
b11100 N"
b101000 1
b101000 ?"
b101000 J"
b101000 T"
b101000 2
b101000 t
b101000 $"
b101000 S"
b10000000 B
b10000000 p
b10000000 O"
b10000000 ^"
b10000000 ~
b10010010000000011 ;
b10010010000000011 r
b10010010000000011 Q"
b10010010000000011 !"
1&
1'"
18
1""
b11100101010001100010011 <
b11100101010001100010011 E
b11100101010001100010011 Z
b11100101010001100010011 q
b10100 4
b10100 F
b10100 ]
b10100 s
b10100 5"
b111 *"
b11111111111111111111111111111001 ,"
b0 0
b0 G
b0 ^
b0 u
b0 ("
b11011 {
b11011 6"
b111 (
b111 I
b111 a
b111 x
b111 4"
b111 8"
b0 C
b0 D
b0 o
b0 0"
b0 X
0'
0b
09
0[
b11000 5
b11000 Q
b11000 ;"
b11000 C"
b110000011001100011 =
b110000011001100011 T
b110000011001100011 f
b110000011001100011 A"
b110000011001100011 B"
1!
#150
0!
