Question2/dump.vcd
$date
	Tue Mar 25 23:09:23 2025
$end
$version
	Icarus Verilog
$end
$timescale
	1s
$end
$scope module tb_riscv_sc $end
$var reg 1 ! clk $end
$var reg 1 " start $end
$scope module riscv_DUT $end
$var wire 1 # PC_sel_mux $end
$var wire 1 ! clk $end
$var wire 1 " start $end
$var wire 1 $ zero $end
$var wire 32 % writeData [31:0] $end
$var wire 1 & regWrite $end
$var wire 32 ' regReadData2 [31:0] $end
$var wire 32 ( regReadData1 [31:0] $end
$var wire 32 ) readDataMux1 [31:0] $end
$var wire 32 * pc_next_def [31:0] $end
$var wire 32 + pc_next [31:0] $end
$var wire 32 , pc_current [31:0] $end
$var wire 32 - offset_PC [31:0] $end
$var wire 32 . mux_input_to_ALU_B [31:0] $end
$var wire 1 / memtoReg $end
$var wire 1 0 memWrite $end
$var wire 1 1 memRead $end
$var wire 32 2 instruction [31:0] $end
$var wire 32 3 immediate [31:0] $end
$var wire 1 4 branch $end
$var wire 1 5 ALUSrc $end
$var wire 32 6 ALUOut [31:0] $end
$var wire 2 7 ALUOp [1:0] $end
$var wire 4 8 ALUCtl [3:0] $end
$scope module m_ALU $end
$var wire 32 9 ori [31:0] $end
$var wire 1 $ zero $end
$var wire 32 : sum [31:0] $end
$var wire 32 ; slti [31:0] $end
$var wire 32 < diff [31:0] $end
$var wire 32 = B [31:0] $end
$var wire 4 > ALUCtl [3:0] $end
$var wire 32 ? A [31:0] $end
$var reg 32 @ ALUOut [31:0] $end
$upscope $end
$scope module m_ALUCtrl $end
$var wire 3 A funct3 [2:0] $end
$var wire 1 B funct7 $end
$var wire 2 C ALUOp [1:0] $end
$var reg 4 D ALUCtl [3:0] $end
$upscope $end
$scope module m_Adder_1 $end
$var wire 32 E b [31:0] $end
$var wire 32 F sum [31:0] $end
$var wire 32 G a [31:0] $end
$upscope $end
$scope module m_Adder_2 $end
$var wire 32 H sum [31:0] $end
$var wire 32 I b [31:0] $end
$var wire 32 J a [31:0] $end
$upscope $end
$scope module m_Control $end
$var wire 1 5 ALUSrc $end
$var wire 7 K opcode [6:0] $end
$var wire 1 & regWrite $end
$var wire 1 / memtoReg $end
$var wire 1 0 memWrite $end
$var wire 1 1 memRead $end
$var wire 1 4 branch $end
$var wire 2 L ALUOp [1:0] $end
$upscope $end
$scope module m_DataMemory $end
$var wire 32 M address [31:0] $end
$var wire 1 ! clk $end
$var wire 1 1 memRead $end
$var wire 1 0 memWrite $end
$var wire 1 " rst $end
$var wire 32 N writeData [31:0] $end
$var reg 32 O readData [31:0] $end
$upscope $end
$scope module m_ImmGen $end
$var wire 7 P opcode [6:0] $end
$var wire 32 Q inst [31:0] $end
$var parameter 32 R Width $end
$var reg 32 S imm [31:0] $end
$upscope $end
$scope module m_InstMem $end
$var wire 32 T readAddr [31:0] $end
$var wire 32 U inst [31:0] $end
$upscope $end
$scope module m_Mux_ALU $end
$var wire 32 V s1 [31:0] $end
$var wire 1 5 sel $end
$var wire 32 W s0 [31:0] $end
$var wire 32 X out [31:0] $end
$var parameter 32 Y size $end
$upscope $end
$scope module m_Mux_PC $end
$var wire 32 Z s0 [31:0] $end
$var wire 32 [ s1 [31:0] $end
$var wire 1 # sel $end
$var wire 32 \ out [31:0] $end
$var parameter 32 ] size $end
$upscope $end
$scope module m_Mux_WriteData $end
$var wire 32 ^ s0 [31:0] $end
$var wire 32 _ s1 [31:0] $end
$var wire 1 / sel $end
$var wire 32 ` out [31:0] $end
$var parameter 32 a size $end
$upscope $end
$scope module m_PC $end
$var wire 1 ! clk $end
$var wire 32 b pc_i [31:0] $end
$var wire 1 " rst $end
$var reg 32 c pc_o [31:0] $end
$upscope $end
$scope module m_Register $end
$var wire 1 ! clk $end
$var wire 5 d readReg1 [4:0] $end
$var wire 5 e readReg2 [4:0] $end
$var wire 1 & regWrite $end
$var wire 1 " rst $end
$var wire 32 f writeData [31:0] $end
$var wire 5 g writeReg [4:0] $end
$var wire 32 h readData2 [31:0] $end
$var wire 32 i readData1 [31:0] $end
$upscope $end
$scope module m_ShiftLeftOne $end
$var wire 32 j i [31:0] $end
$var wire 32 k o [31:0] $end
$upscope $end
$upscope $end
$upscope $end
$enddefinitions $end
$comment Show the parameter values. $end
$dumpall
b100000 a
b100000 ]
b100000 Y
b100000 R
$end
#0
$dumpvars
bz0 k
bz j
bx i
bx h
bx g
bx f
bx e
bx d
bx c
bx b
bx `
b0 _
bx ^
bx \
bx [
bx Z
bx X
bx W
bx V
bx U
bx T
bx S
bx Q
bx P
b0 O
bx N
bx M
bx L
bx K
bx J
bx I
bx H
bx G
bx F
b100 E
b0 D
bx C
xB
bx A
bx @
bx ?
b0 >
bx =
bx <
b0x ;
bx :
bx 9
b0 8
bx 7
bx 6
x5
x4
bx 3
bx 2
x1
x0
x/
bx .
bx -
bx ,
bx +
bx *
b0 )
bx (
bx '
x&
bx %
x$
x#
0"
0!
$end
#5
b10100011 %
b10100011 `
b10100011 f
b1 ;
0$
b10100011 6
b10100011 @
b10100011 M
b10100011 ^
b10100011 9
1&
b11111111111111111111111101011101 <
b10100011 :
b10100011 .
b10100011 =
b10100011 X
15
b0 '
b0 N
b0 W
b0 h
b0 (
b0 ?
b0 i
0#
b0 7
b0 C
b0 L
b100 +
b100 \
b100 b
b10011 P
b0 A
0B
b1000 g
b11 e
b0 d
04
01
0/
00
b10011 K
b10100011 -
b10100011 H
b10100011 [
b10100011 3
b10100011 I
b10100011 S
b10100011 V
b1010001100000000010000010011 2
b1010001100000000010000010011 Q
b1010001100000000010000010011 U
b100 *
b100 F
b100 Z
b0 ,
b0 G
b0 J
b0 T
b0 c
1!
#10
0!
1"
#15
b1111100 %
b1111100 `
b1111100 f
b0 ;
b1111100 6
b1111100 @
b1111100 M
b1111100 ^
b11111111111111111111111111111100 9
b10000000 (
b10000000 ?
b10000000 i
b10000100 <
b1111100 :
b11111111111111111111111111111100 .
b11111111111111111111111111111100 =
b11111111111111111111111111111100 X
1B
b10 g
b11100 e
b10 d
b11111111111111111111111111111100 3
b11111111111111111111111111111100 I
b11111111111111111111111111111100 S
b11111111111111111111111111111100 V
b11111111110000010000000100010011 2
b11111111110000010000000100010011 Q
b11111111110000010000000100010011 U
b1000 +
b1000 \
b1000 b
b0 -
b0 H
b0 [
b1000 *
b1000 F
b1000 Z
b100 ,
b100 G
b100 J
b100 T
b100 c
1!
#20
0!
#25
0&
b11 7
b11 C
b11 L
0$
b1111100 9
b0 8
b0 >
b0 D
b10100011 '
b10100011 N
b10100011 W
b10100011 h
b0 .
b0 =
b0 X
b1111100 %
b1111100 `
b1111100 f
b100011 P
b10 A
0B
b0 g
b1000 e
10
b100011 K
b0 3
b0 I
b0 S
b0 V
b1111100 6
b1111100 @
b1111100 M
b1111100 ^
b100000010010000000100011 2
b100000010010000000100011 Q
b100000010010000000100011 U
b1100 +
b1100 \
b1100 b
b1111100 <
b1111100 :
b1111100 (
b1111100 ?
b1111100 i
b1000 -
b1000 H
b1000 [
b1100 *
b1100 F
b1100 Z
b1000 ,
b1000 G
b1000 J
b1000 T
b1000 c
1!
#30
0!
#35
1$
1&
b0 %
b0 `
b0 f
b10 7
b10 C
b10 L
b0 6
b0 @
b0 M
b0 ^
b0 9
b0 '
b0 N
b0 W
b0 h
b0 (
b0 ?
b0 i
05
b0 <
b0 :
b0 .
b0 =
b0 X
b110011 P
b0 A
b1000 g
b0 e
b0 d
00
b110011 K
b0 3
b0 I
b0 S
b0 V
b10000110011 2
b10000110011 Q
b10000110011 U
b10000 +
b10000 \
b10000 b
b1100 -
b1100 H
b1100 [
b10000 *
b10000 F
b10000 Z
b1100 ,
b1100 G
b1100 J
b1100 T
b1100 c
1!
#40
0!
#45
15
b0 7
b0 C
b0 L
b10011 P
b101 g
b10011 K
b1010010011 2
b1010010011 Q
b1010010011 U
b10100 +
b10100 \
b10100 b
b10000 -
b10000 H
b10000 [
b10100 *
b10100 F
b10100 Z
b10000 ,
b10000 G
b10000 J
b10000 T
b10000 c
1!
#50
0!
#55
b1 %
b1 `
b1 f
0$
b1 6
b1 @
b1 M
b1 ^
b1 ;
b111 9
b10 8
b10 >
b10 D
b11111111111111111111111111111001 <
b111 :
b111 .
b111 =
b111 X
b10 A
b110 g
b111 e
b101 d
b111 3
b111 I
b111 S
b111 V
b11100101010001100010011 2
b11100101010001100010011 Q
b11100101010001100010011 U
b11000 +
b11000 \
b11000 b
b11011 -
b11011 H
b11011 [
b11000 *
b11000 F
b11000 Z
b10100 ,
b10100 G
b10100 J
b10100 T
b10100 c
1!
#60
0!
#65
0&
05
b0 ;
b1 9
b1 8
b1 >
b1 D
b1 (
b1 ?
b1 i
b1 7
b1 C
b1 L
b1 <
b1 :
b0 .
b0 =
b0 X
b1100011 P
b0 A
b1100 g
b0 e
b110 d
14
b1100011 K
b1100 3
b1100 I
b1100 S
b1100 V
b110000011001100011 2
b110000011001100011 Q
b110000011001100011 U
b11100 +
b11100 \
b11100 b
b100100 -
b100100 H
b100100 [
b11100 *
b11100 F
b11100 Z
b11000 ,
b11000 G
b11000 J
b11000 T
b11000 c
1!
#70
0!
#75
b1 ;
b1 %
b1 `
b1 f
b1 .
b1 =
b1 X
1&
0$
b1 6
b1 @
b1 M
b1 ^
b1 9
15
b0 8
b0 >
b0 D
b11111111111111111111111111111111 <
b1 :
b0 (
b0 ?
b0 i
b0 7
b0 C
b0 L
b10011 P
b101 g
b1 e
b101 d
04
b10011 K
b1 3
b1 I
b1 S
b1 V
b100101000001010010011 2
b100101000001010010011 Q
b100101000001010010011 U
b100000 +
b100000 \
b100000 b
b11101 -
b11101 H
b11101 [
b100000 *
b100000 F
b100000 Z
b11100 ,
b11100 G
b11100 J
b11100 T
b11100 c
1!
#80
0!
#85
1#
1$
0&
05
b0 9
b1 8
b1 >
b1 D
b1 7
b1 C
b1 L
b0 .
b0 =
b0 X
b0 %
b0 `
b0 f
b1100011 P
1B
b10101 g
b0 e
b0 d
14
b1100011 K
b11111111111111111111111111110100 3
b11111111111111111111111111110100 I
b11111111111111111111111111110100 S
b11111111111111111111111111110100 V
b0 ;
b0 6
b0 @
b0 M
b0 ^
b11111110000000000000101011100011 2
b11111110000000000000101011100011 Q
b11111110000000000000101011100011 U
b10100 +
b10100 \
b10100 b
b0 <
b0 :
b0 (
b0 ?
b0 i
b10100 -
b10100 H
b10100 [
b100100 *
b100100 F
b100100 Z
b100000 ,
b100000 G
b100000 J
b100000 T
b100000 c
1!
#90
0!
#95
b1 ;
b1 %
b1 `
b1 f
b111 .
b111 =
b111 X
1&
0$
b1 6
b1 @
b1 M
b1 ^
b111 9
15
b10 8
b10 >
b10 D
b11111111111111111111111111111010 <
b1000 :
b1 (
b1 ?
b1 i
0#
b0 7
b0 C
b0 L
b10011 P
b10 A
0B
b110 g
b111 e
b101 d
04
b10011 K
b111 3
b111 I
b111 S
b111 V
b11100101010001100010011 2
b11100101010001100010011 Q
b11100101010001100010011 U
b11000 +
b11000 \
b11000 b
b11011 -
b11011 H
b11011 [
b11000 *
b11000 F
b11000 Z
b10100 ,
b10100 G
b10100 J
b10100 T
b10100 c
1!
#100
0!
#105
0&
05
b0 ;
b1 9
b1 8
b1 >
b1 D
b1 7
b1 C
b1 L
b1 <
b1 :
b0 .
b0 =
b0 X
b1100011 P
b0 A
b1100 g
b0 e
b110 d
14
b1100011 K
b1100 3
b1100 I
b1100 S
b1100 V
b110000011001100011 2
b110000011001100011 Q
b110000011001100011 U
b11100 +
b11100 \
b11100 b
b100100 -
b100100 H
b100100 [
b11100 *
b11100 F
b11100 Z
b11000 ,
b11000 G
b11000 J
b11000 T
b11000 c
1!
#110
0!
#115
b10 %
b10 `
b10 f
b10 6
b10 @
b10 M
b10 ^
b0 <
b10 :
b1 .
b1 =
b1 X
1&
15
b0 8
b0 >
b0 D
b0 7
b0 C
b0 L
b10011 P
b101 g
b1 e
b101 d
04
b10011 K
b1 3
b1 I
b1 S
b1 V
b100101000001010010011 2
b100101000001010010011 Q
b100101000001010010011 U
b100000 +
b100000 \
b100000 b
b11101 -
b11101 H
b11101 [
b100000 *
b100000 F
b100000 Z
b11100 ,
b11100 G
b11100 J
b11100 T
b11100 c
1!
#120
0!
#125
1#
1$
0&
05
b1 8
b1 >
b1 D
b1 7
b1 C
b1 L
b0 .
b0 =
b0 X
b0 %
b0 `
b0 f
b1100011 P
1B
b10101 g
b0 e
b0 d
14
b1100011 K
b11111111111111111111111111110100 3
b11111111111111111111111111110100 I
b11111111111111111111111111110100 S
b11111111111111111111111111110100 V
b0 6
b0 @
b0 M
b0 ^
b0 9
b11111110000000000000101011100011 2
b11111110000000000000101011100011 Q
b11111110000000000000101011100011 U
b10100 +
b10100 \
b10100 b
b0 <
b0 :
b0 (
b0 ?
b0 i
b10100 -
b10100 H
b10100 [
b100100 *
b100100 F
b100100 Z
b100000 ,
b100000 G
b100000 J
b100000 T
b100000 c
1!
#130
0!
#135
b1 ;
b1 %
b1 `
b1 f
b111 .
b111 =
b111 X
1&
0$
b1 6
b1 @
b1 M
b1 ^
b111 9
15
b10 8
b10 >
b10 D
b11111111111111111111111111111011 <
b1001 :
b10 (
b10 ?
b10 i
0#
b0 7
b0 C
b0 L
b10011 P
b10 A
0B
b110 g
b111 e
b101 d
04
b10011 K
b111 3
b111 I
b111 S
b111 V
b11100101010001100010011 2
b11100101010001100010011 Q
b11100101010001100010011 U
b11000 +
b11000 \
b11000 b
b11011 -
b11011 H
b11011 [
b11000 *
b11000 F
b11000 Z
b10100 ,
b10100 G
b10100 J
b10100 T
b10100 c
1!
#140
0!
#145
0&
05
b0 ;
b1 9
b1 8
b1 >
b1 D
b1 (
b1 ?
b1 i
b1 7
b1 C
b1 L
b1 <
b1 :
b0 .
b0 =
b0 X
b1100011 P
b0 A
b1100 g
b0 e
b110 d
14
b1100011 K
b1100 3
b1100 I
b1100 S
b1100 V
b110000011001100011 2
b110000011001100011 Q
b110000011001100011 U
b11100 +
b11100 \
b11100 b
b100100 -
b100100 H
b100100 [
b11100 *
b11100 F
b11100 Z
b11000 ,
b11000 G
b11000 J
b11000 T
b11000 c
1!
#150
0!
#155
b11 %
b11 `
b11 f
b1 .
b1 =
b1 X
1&
b11 6
b11 @
b11 M
b11 ^
b11 9
15
b0 8
b0 >
b0 D
b1 <
b11 :
b10 (
b10 ?
b10 i
b0 7
b0 C
b0 L
b10011 P
b101 g
b1 e
b101 d
04
b10011 K
b1 3
b1 I
b1 S
b1 V
b100101000001010010011 2
b100101000001010010011 Q
b100101000001010010011 U
b100000 +
b100000 \
b100000 b
b11101 -
b11101 H
b11101 [
b100000 *
b100000 F
b100000 Z
b11100 ,
b11100 G
b11100 J
b11100 T
b11100 c
1!
#160
0!
#165
1#
1$
0&
05
b0 9
b1 8
b1 >
b1 D
b1 7
b1 C
b1 L
b0 .
b0 =
b0 X
b0 %
b0 `
b0 f
b1100011 P
1B
b10101 g
b0 e
b0 d
14
b1100011 K
b11111111111111111111111111110100 3
b11111111111111111111111111110100 I
b11111111111111111111111111110100 S
b11111111111111111111111111110100 V
b0 6
b0 @
b0 M
b0 ^
b11111110000000000000101011100011 2
b11111110000000000000101011100011 Q
b11111110000000000000101011100011 U
b10100 +
b10100 \
b10100 b
b0 <
b0 :
b0 (
b0 ?
b0 i
b10100 -
b10100 H
b10100 [
b100100 *
b100100 F
b100100 Z
b100000 ,
b100000 G
b100000 J
b100000 T
b100000 c
1!
#170
0!
#175
b1 ;
b1 %
b1 `
b1 f
b111 .
b111 =
b111 X
1&
0$
b1 6
b1 @
b1 M
b1 ^
b111 9
15
b10 8
b10 >
b10 D
b11111111111111111111111111111100 <
b1010 :
b11 (
b11 ?
b11 i
0#
b0 7
b0 C
b0 L
b10011 P
b10 A
0B
b110 g
b111 e
b101 d
04
b10011 K
b111 3
b111 I
b111 S
b111 V
b11100101010001100010011 2
b11100101010001100010011 Q
b11100101010001100010011 U
b11000 +
b11000 \
b11000 b
b11011 -
b11011 H
b11011 [
b11000 *
b11000 F
b11000 Z
b10100 ,
b10100 G
b10100 J
b10100 T
b10100 c
1!
#180
0!
#185
0&
05
b0 ;
b1 9
b1 8
b1 >
b1 D
b1 (
b1 ?
b1 i
b1 7
b1 C
b1 L
b1 <
b1 :
b0 .
b0 =
b0 X
b1100011 P
b0 A
b1100 g
b0 e
b110 d
14
b1100011 K
b1100 3
b1100 I
b1100 S
b1100 V
b110000011001100011 2
b110000011001100011 Q
b110000011001100011 U
b11100 +
b11100 \
b11100 b
b100100 -
b100100 H
b100100 [
b11100 *
b11100 F
b11100 Z
b11000 ,
b11000 G
b11000 J
b11000 T
b11000 c
1!
#190
0!
#195
b100 %
b100 `
b100 f
b1 .
b1 =
b1 X
1&
b100 6
b100 @
b100 M
b100 ^
b11 9
15
b0 8
b0 >
b0 D
b10 <
b100 :
b11 (
b11 ?
b11 i
b0 7
b0 C
b0 L
b10011 P
b101 g
b1 e
b101 d
04
b10011 K
b1 3
b1 I
b1 S
b1 V
b100101000001010010011 2
b100101000001010010011 Q
b100101000001010010011 U
b100000 +
b100000 \
b100000 b
b11101 -
b11101 H
b11101 [
b100000 *
b100000 F
b100000 Z
b11100 ,
b11100 G
b11100 J
b11100 T
b11100 c
1!
#200
0!
#205
1#
1$
0&
05
b1 8
b1 >
b1 D
b1 7
b1 C
b1 L
b0 .
b0 =
b0 X
b0 %
b0 `
b0 f
b1100011 P
1B
b10101 g
b0 e
b0 d
14
b1100011 K
b11111111111111111111111111110100 3
b11111111111111111111111111110100 I
b11111111111111111111111111110100 S
b11111111111111111111111111110100 V
b0 6
b0 @
b0 M
b0 ^
b0 9
b11111110000000000000101011100011 2
b11111110000000000000101011100011 Q
b11111110000000000000101011100011 U
b10100 +
b10100 \
b10100 b
b0 <
b0 :
b0 (
b0 ?
b0 i
b10100 -
b10100 H
b10100 [
b100100 *
b100100 F
b100100 Z
b100000 ,
b100000 G
b100000 J
b100000 T
b100000 c
1!
#210
0!
#215
b1 ;
b1 %
b1 `
b1 f
b111 .
b111 =
b111 X
1&
0$
b1 6
b1 @
b1 M
b1 ^
b111 9
15
b10 8
b10 >
b10 D
b11111111111111111111111111111101 <
b1011 :
b100 (
b100 ?
b100 i
0#
b0 7
b0 C
b0 L
b10011 P
b10 A
0B
b110 g
b111 e
b101 d
04
b10011 K
b111 3
b111 I
b111 S
b111 V
b11100101010001100010011 2
b11100101010001100010011 Q
b11100101010001100010011 U
b11000 +
b11000 \
b11000 b
b11011 -
b11011 H
b11011 [
b11000 *
b11000 F
b11000 Z
b10100 ,
b10100 G
b10100 J
b10100 T
b10100 c
1!
#220
0!
#225
0&
05
b0 ;
b1 9
b1 8
b1 >
b1 D
b1 (
b1 ?
b1 i
b1 7
b1 C
b1 L
b1 <
b1 :
b0 .
b0 =
b0 X
b1100011 P
b0 A
b1100 g
b0 e
b110 d
14
b1100011 K
b1100 3
b1100 I
b1100 S
b1100 V
b110000011001100011 2
b110000011001100011 Q
b110000011001100011 U
b11100 +
b11100 \
b11100 b
b100100 -
b100100 H
b100100 [
b11100 *
b11100 F
b11100 Z
b11000 ,
b11000 G
b11000 J
b11000 T
b11000 c
1!
#230
0!
#235
b101 %
b101 `
b101 f
b1 .
b1 =
b1 X
1&
b101 6
b101 @
b101 M
b101 ^
b101 9
15
b0 8
b0 >
b0 D
b11 <
b101 :
b100 (
b100 ?
b100 i
b0 7
b0 C
b0 L
b10011 P
b101 g
b1 e
b101 d
04
b10011 K
b1 3
b1 I
b1 S
b1 V
b100101000001010010011 2
b100101000001010010011 Q
b100101000001010010011 U
b100000 +
b100000 \
b100000 b
b11101 -
b11101 H
b11101 [
b100000 *
b100000 F
b100000 Z
b11100 ,
b11100 G
b11100 J
b11100 T
b11100 c
1!
#240
0!
#245
1#
1$
0&
05
b0 9
b1 8
b1 >
b1 D
b1 7
b1 C
b1 L
b0 .
b0 =
b0 X
b0 %
b0 `
b0 f
b1100011 P
1B
b10101 g
b0 e
b0 d
14
b1100011 K
b11111111111111111111111111110100 3
b11111111111111111111111111110100 I
b11111111111111111111111111110100 S
b11111111111111111111111111110100 V
b0 6
b0 @
b0 M
b0 ^
b11111110000000000000101011100011 2
b11111110000000000000101011100011 Q
b11111110000000000000101011100011 U
b10100 +
b10100 \
b10100 b
b0 <
b0 :
b0 (
b0 ?
b0 i
b10100 -
b10100 H
b10100 [
b100100 *
b100100 F
b100100 Z
b100000 ,
b100000 G
b100000 J
b100000 T
b100000 c
1!
#250
0!
#255
b1 ;
b1 %
b1 `
b1 f
b111 .
b111 =
b111 X
1&
0$
b1 6
b1 @
b1 M
b1 ^
b111 9
15
b10 8
b10 >
b10 D
b11111111111111111111111111111110 <
b1100 :
b101 (
b101 ?
b101 i
0#
b0 7
b0 C
b0 L
b10011 P
b10 A
0B
b110 g
b111 e
b101 d
04
b10011 K
b111 3
b111 I
b111 S
b111 V
b11100101010001100010011 2
b11100101010001100010011 Q
b11100101010001100010011 U
b11000 +
b11000 \
b11000 b
b11011 -
b11011 H
b11011 [
b11000 *
b11000 F
b11000 Z
b10100 ,
b10100 G
b10100 J
b10100 T
b10100 c
1!
#260
0!
#265
0&
05
b0 ;
b1 9
b1 8
b1 >
b1 D
b1 (
b1 ?
b1 i
b1 7
b1 C
b1 L
b1 <
b1 :
b0 .
b0 =
b0 X
b1100011 P
b0 A
b1100 g
b0 e
b110 d
14
b1100011 K
b1100 3
b1100 I
b1100 S
b1100 V
b110000011001100011 2
b110000011001100011 Q
b110000011001100011 U
b11100 +
b11100 \
b11100 b
b100100 -
b100100 H
b100100 [
b11100 *
b11100 F
b11100 Z
b11000 ,
b11000 G
b11000 J
b11000 T
b11000 c
1!
#270
0!
#275
b110 %
b110 `
b110 f
b1 .
b1 =
b1 X
1&
b110 6
b110 @
b110 M
b110 ^
b101 9
15
b0 8
b0 >
b0 D
b100 <
b110 :
b101 (
b101 ?
b101 i
b0 7
b0 C
b0 L
b10011 P
b101 g
b1 e
b101 d
04
b10011 K
b1 3
b1 I
b1 S
b1 V
b100101000001010010011 2
b100101000001010010011 Q
b100101000001010010011 U
b100000 +
b100000 \
b100000 b
b11101 -
b11101 H
b11101 [
b100000 *
b100000 F
b100000 Z
b11100 ,
b11100 G
b11100 J
b11100 T
b11100 c
1!
#280
0!
#285
1#
1$
0&
05
b1 8
b1 >
b1 D
b1 7
b1 C
b1 L
b0 .
b0 =
b0 X
b0 %
b0 `
b0 f
b1100011 P
1B
b10101 g
b0 e
b0 d
14
b1100011 K
b11111111111111111111111111110100 3
b11111111111111111111111111110100 I
b11111111111111111111111111110100 S
b11111111111111111111111111110100 V
b0 6
b0 @
b0 M
b0 ^
b0 9
b11111110000000000000101011100011 2
b11111110000000000000101011100011 Q
b11111110000000000000101011100011 U
b10100 +
b10100 \
b10100 b
b0 <
b0 :
b0 (
b0 ?
b0 i
b10100 -
b10100 H
b10100 [
b100100 *
b100100 F
b100100 Z
b100000 ,
b100000 G
b100000 J
b100000 T
b100000 c
1!
#290
0!
#295
b1 ;
b1 %
b1 `
b1 f
b111 .
b111 =
b111 X
1&
0$
b1 6
b1 @
b1 M
b1 ^
b111 9
15
b10 8
b10 >
b10 D
b11111111111111111111111111111111 <
b1101 :
b110 (
b110 ?
b110 i
0#
b0 7
b0 C
b0 L
b10011 P
b10 A
0B
b110 g
b111 e
b101 d
04
b10011 K
b111 3
b111 I
b111 S
b111 V
b11100101010001100010011 2
b11100101010001100010011 Q
b11100101010001100010011 U
b11000 +
b11000 \
b11000 b
b11011 -
b11011 H
b11011 [
b11000 *
b11000 F
b11000 Z
b10100 ,
b10100 G
b10100 J
b10100 T
b10100 c
1!
#300
0!
#305
0&
05
b0 ;
b1 9
b1 8
b1 >
b1 D
b1 (
b1 ?
b1 i
b1 7
b1 C
b1 L
b1 <
b1 :
b0 .
b0 =
b0 X
b1100011 P
b0 A
b1100 g
b0 e
b110 d
14
b1100011 K
b1100 3
b1100 I
b1100 S
b1100 V
b110000011001100011 2
b110000011001100011 Q
b110000011001100011 U
b11100 +
b11100 \
b11100 b
b100100 -
b100100 H
b100100 [
b11100 *
b11100 F
b11100 Z
b11000 ,
b11000 G
b11000 J
b11000 T
b11000 c
1!
#310
0!
#315
b111 %
b111 `
b111 f
b1 .
b1 =
b1 X
1&
b111 6
b111 @
b111 M
b111 ^
b111 9
15
b0 8
b0 >
b0 D
b101 <
b111 :
b110 (
b110 ?
b110 i
b0 7
b0 C
b0 L
b10011 P
b101 g
b1 e
b101 d
04
b10011 K
b1 3
b1 I
b1 S
b1 V
b100101000001010010011 2
b100101000001010010011 Q
b100101000001010010011 U
b100000 +
b100000 \
b100000 b
b11101 -
b11101 H
b11101 [
b100000 *
b100000 F
b100000 Z
b11100 ,
b11100 G
b11100 J
b11100 T
b11100 c
1!
#320
0!
#325
1#
1$
0&
05
b0 9
b1 8
b1 >
b1 D
b1 7
b1 C
b1 L
b0 .
b0 =
b0 X
b0 %
b0 `
b0 f
b1100011 P
1B
b10101 g
b0 e
b0 d
14
b1100011 K
b11111111111111111111111111110100 3
b11111111111111111111111111110100 I
b11111111111111111111111111110100 S
b11111111111111111111111111110100 V
b0 6
b0 @
b0 M
b0 ^
b11111110000000000000101011100011 2
b11111110000000000000101011100011 Q
b11111110000000000000101011100011 U
b10100 +
b10100 \
b10100 b
b0 <
b0 :
b0 (
b0 ?
b0 i
b10100 -
b10100 H
b10100 [
b100100 *
b100100 F
b100100 Z
b100000 ,
b100000 G
b100000 J
b100000 T
b100000 c
1!
#330
0!
#335
b0 %
b0 `
b0 f
b111 .
b111 =
b111 X
1&
1$
b0 6
b0 @
b0 M
b0 ^
b111 9
15
b10 8
b10 >
b10 D
b0 <
b1110 :
b111 (
b111 ?
b111 i
0#
b0 7
b0 C
b0 L
b10011 P
b10 A
0B
b110 g
b111 e
b101 d
04
b10011 K
b111 3
b111 I
b111 S
b111 V
b11100101010001100010011 2
b11100101010001100010011 Q
b11100101010001100010011 U
b11000 +
b11000 \
b11000 b
b11011 -
b11011 H
b11011 [
b11000 *
b11000 F
b11000 Z
b10100 ,
b10100 G
b10100 J
b10100 T
b10100 c
1!
#340
0!
#345
0&
05
b0 9
b1 8
b1 >
b1 D
b0 (
b0 ?
b0 i
1#
b1 7
b1 C
b1 L
b0 <
b0 :
b0 .
b0 =
b0 X
b1100011 P
b0 A
b1100 g
b0 e
b110 d
14
b1100011 K
b1100 3
b1100 I
b1100 S
b1100 V
b110000011001100011 2
b110000011001100011 Q
b110000011001100011 U
b100100 +
b100100 \
b100100 b
b100100 -
b100100 H
b100100 [
b11100 *
b11100 F
b11100 Z
b11000 ,
b11000 G
b11000 J
b11000 T
b11000 c
1!
#350
0!
#355
b1010 %
b1010 `
b1010 f
b1 ;
0$
b1010 6
b1010 @
b1010 M
b1010 ^
b1010 9
b11111111111111111111111111110110 <
b1010 :
b1010 .
b1010 =
b1010 X
1&
15
b11 8
b11 >
b11 D
0#
b0 7
b0 C
b0 L
b10011 P
b110 A
b110 g
b1010 e
04
b10011 K
b1010 3
b1010 I
b1010 S
b1010 V
b101000110110001100010011 2
b101000110110001100010011 Q
b101000110110001100010011 U
b101000 +
b101000 \
b101000 b
b101110 -
b101110 H
b101110 [
b101000 *
b101000 F
b101000 Z
b100100 ,
b100100 G
b100100 J
b100100 T
b100100 c
1!
#360
0!
#365
b10100011 )
b10100011 O
b10100011 _
b11 7
b11 C
b11 L
0$
b1111100 6
b1111100 @
b1111100 M
b1111100 ^
b1111100 9
b0 8
b0 >
b0 D
b10100011 %
b10100011 `
b10100011 f
b0 .
b0 =
b0 X
b11 P
b10 A
b1000 g
b0 e
b10 d
11
1/
b11 K
b0 3
b0 I
b0 S
b0 V
b0 ;
b10010010000000011 2
b10010010000000011 Q
b10010010000000011 U
b101100 +
b101100 \
b101100 b
b1111100 <
b1111100 :
b1111100 (
b1111100 ?
b1111100 i
b101000 -
b101000 H
b101000 [
b101100 *
b101100 F
b101100 Z
b101000 ,
b101000 G
b101000 J
b101000 T
b101000 c
1!
#370
0!
#375
b0 7
b0 C
b0 L
1&
b10000000 6
b10000000 @
b10000000 M
b10000000 ^
b0 )
b0 O
b0 _
b10000000 %
b10000000 `
b10000000 f
b1111000 <
b10000000 :
b100 .
b100 =
b100 X
b10011 P
b0 A
b10 g
b100 e
01
0/
b10011 K
b100 3
b100 I
b100 S
b100 V
b10000010000000100010011 2
b10000010000000100010011 Q
b10000010000000100010011 U
b110000 +
b110000 \
b110000 b
b110000 -
b110000 H
b110000 [
b110000 *
b110000 F
b110000 Z
b101100 ,
b101100 G
b101100 J
b101100 T
b101100 c
1!
#380
0!
#385
b1 ;
b100000 .
b100000 =
b100000 X
b100000 %
b100000 `
b100000 f
b111 g
b0 e
b0 d
b100000 3
b100000 I
b100000 S
b100000 V
b100000 6
b100000 @
b100000 M
b100000 ^
b100000 9
b10000000000000001110010011 2
b10000000000000001110010011 Q
b10000000000000001110010011 U
b110100 +
b110100 \
b110100 b
b11111111111111111111111111100000 <
b100000 :
b0 (
b0 ?
b0 i
b1010000 -
b1010000 H
b1010000 [
b110100 *
b110100 F
b110100 Z
b110000 ,
b110000 G
b110000 J
b110000 T
b110000 c
1!
#390
0!
